  0.40000000000000002       0.18289106425623650       0.98408759776695831      -4.43522157308343002E-016 -0.30583892064944918       1.31977762052315484E-014 -3.26510821852753416E-002 -1.10467777073807415E-002 -4.36978598926724277E-002
  0.40000000000000002       0.54409071587752289       0.98261604038343930      -3.73751438969399766E-016  -1.0148347899455723      -3.09474668114262386E-015 -3.46116427638763907E-002 -1.30412106541412665E-002 -4.76528534180063953E-002
  0.40000000000000002       0.89230909680076698       0.97956764274306396      -5.26602074688663362E-016  0.33021646437838714       4.21884749357559485E-015 -3.85740894411078714E-002 -1.72256048453595795E-002 -5.57996942864636275E-002
  0.40000000000000002        1.2211416928994947       0.97475671589973489      -5.56831108881886810E-016  2.80827195098525273E-002 -9.29811783123568603E-016 -4.45988850444251766E-002 -2.39318365140735768E-002 -6.85307215584993884E-002
  0.40000000000000002        1.5267018704660544       0.96795779082690003      -4.52280144724147272E-016 -3.19251936336669706E-002  1.62370117351429144E-015 -5.27316775748695732E-002 -3.35286151739456958E-002 -8.62602927488146931E-002
  0.40000000000000002        1.8074570199925677       0.95894870855957126      -2.85307585691664255E-016 -1.24944125998256647E-002 -1.15185638804859991E-015 -6.29715400685317700E-002 -4.63115469527731471E-002 -0.10928308702130743     
  0.40000000000000002        2.0636697770000323       0.94754501350497378      -3.69336313420359261E-016  2.63614112133335812E-003 -4.27435864480685268E-015 -7.52513041636371227E-002 -6.24118021931915692E-002 -0.13766310635683446     
  0.40000000000000002        2.2967540530839154       0.93362024570444424      -6.54167440374839590E-016  5.86462879418249081E-003  1.24622534514173822E-014 -8.94328118436330255E-002 -8.17416633689363598E-002 -0.17117447521254400     
  0.40000000000000002        2.5087314860434531       0.91711234011998366      -6.80056038090200559E-016 -1.39396864355374739E-003  2.58126853225348896E-015 -0.10531440551978785      -0.10398127240670518      -0.20929567792651374     
  0.40000000000000002        2.7018477055453940       0.89801962428474569      -7.67365331720657920E-016  2.91413079080010684E-004 -1.67088565206086059E-014 -0.12264568872728290      -0.12859996897462658      -0.25124565770189039     
  0.40000000000000002        2.8783352591400826       0.87639075226905006      -1.00567715695658264E-015 -1.02263260973513986E-003  6.38378239159465011E-015 -0.14114480933526199      -0.15490030360708254      -0.29604511294234043     
  0.40000000000000002        3.0402850875505600       0.85231226366239121      -1.18117210176526663E-015  5.33411882882257882E-004 -8.88178419700125232E-016 -0.16051488573127048      -0.18207242242823202      -0.34258730815949739     
  0.40000000000000002        3.1895887809432377       0.82589628116941294      -1.01649731306356276E-015 -2.68460040621028989E-004  2.33146835171282873E-015 -0.18045770805249667      -0.20924899816753012      -0.38970670621999276     
  0.40000000000000002        3.3279228386254638       0.79726974808827245      -9.17583145456475387E-016  2.47716776250284793E-004 -4.32986979603811051E-015 -0.20068403191854081      -0.23555430944438166      -0.43623834136294087     
  0.40000000000000002        3.4567556917940148       0.76656578487359495      -5.66223270692286050E-016 -1.47342690044207497E-004  7.38298311375729099E-015 -0.22092053872845141      -0.26014424032201405      -0.48106477905048034     
  0.40000000000000002        3.5773656520351529       0.73391722944871762      -1.66922286546715082E-016  9.65516314653698526E-005 -1.07691633388640184E-014 -0.24091393176763382      -0.28223635811654452      -0.52315028988416901     
  0.40000000000000002        3.6908629617332118       0.69945215240119452       1.18966816500746484E-016 -6.82509329530192610E-005  1.53210777398271603E-014 -0.26043278371237366      -0.30113074913626348      -0.56156353284872029     
  0.40000000000000002        3.7982122612198737       0.66329102537542672       5.50600348289736689E-016  4.26505655766670766E-005 -1.53210777398271603E-014 -0.27926775036575946      -0.31622308858786158      -0.59549083895370636     
  0.40000000000000002        3.9002536489697759       0.62554520270123892       9.01979903999389435E-016 -2.98261500413753156E-005 -2.40918396343658969E-014 -0.29723069133010177      -0.32701169920829071      -0.62424239053842900     
  0.40000000000000002        3.9977215662507817       0.58631640658227147       1.32044222271652616E-015  1.95695505022866478E-005 -7.99360577730112709E-015 -0.31415313766815972      -0.33310030716835171      -0.64725344483652458     
  0.40000000000000002        4.0912613076702726       0.54569695637364624       2.01169573466356848E-015 -1.28943009715075385E-005  2.89768209427165857E-014 -0.32988444564893205      -0.33419798350917623      -0.66408242915798443     
  0.40000000000000002        4.1814432476262491       0.50377053645049474       2.78464860287626245E-015  8.89367417409442362E-006 -3.23074900165920553E-014 -0.34428988711661046      -0.33011746661459768      -0.67440735373117944     
  0.40000000000000002        4.2687750031585772       0.46061334674926979       3.46595578540637892E-015 -5.80153392363766396E-006  1.66533453693773481E-014 -0.35724885525009920      -0.32077275752255230      -0.67802161277262663     
  0.40000000000000002        4.3537117986147011       0.41629552186814117       4.21366928620334797E-015  3.94123878861077359E-006 -6.77236045021345490E-015 -0.36865330949642072      -0.30617659724583995      -0.67482990674230414     
  0.40000000000000002        4.4366652984746251       0.37088273781611197       4.90349161061899947E-015 -2.65267232871929659E-006  1.76525460915399890E-014 -0.37840654303777616      -0.28643818664454923      -0.66484472968227493     
  0.40000000000000002        4.5180111548974269       0.32443795056074681       5.58850752664347674E-015  1.76549011926541155E-006 -2.56461518688411161E-014 -0.38642232734313858      -0.26176129630341832      -0.64818362364665549     
  0.40000000000000002        4.5980954887157592       0.27702322836758408       6.12491115762082248E-015 -1.20109047592464879E-006  9.99200722162640886E-015 -0.39262446805324891      -0.23244273237569327      -0.62506720042887109     
  0.40000000000000002        4.6772404933261598       0.22870165158776451       6.61893890211367433E-015  8.02659125102855864E-007  2.77555756156289135E-015 -0.39694679183368242      -0.19887096852124264      -0.59581776035490130     
  0.40000000000000002        4.7557493234274668       0.17953925994088399       7.01140029756395438E-015 -5.42125189042369504E-007 -1.79856129989275360E-014 -0.39933357236189565      -0.16152461863452555      -0.56085819099643131     
  0.40000000000000002        4.8339104062237128       0.12960702921156916       7.38954619267420399E-015  3.65576343811652160E-007  2.24265050974281621E-014 -0.39974039313496029      -0.12097030672174400      -0.52071069985665230     
  0.40000000000000002        4.9120012919316025       7.89828571853764400E-002  7.77147857489367504E-015 -2.45621061635559190E-007  7.21644966006351751E-016 -0.39813543340274582      -7.78593889862874977E-002 -0.47599482238898483     
  0.40000000000000002        4.9902921431289240       2.77535330330210446E-002  8.06436657675917200E-015  1.65870787622451887E-007  5.55111512312578270E-016 -0.39450114968130956      -3.29229025159879923E-002 -0.42742405219731211     
  0.40000000000000002        5.0690489483434815      -2.39833444413350416E-002  8.32045622718538472E-015 -1.11427946918041254E-007 -3.33066907387546962E-015 -0.38883630768543020       1.30359372118148339E-002 -0.37580037047359166     
  0.40000000000000002        5.1485365339320017      -7.61175458654979042E-002  8.50737741276857546E-015  7.50027229316774235E-008 -3.38618022510672745E-015 -0.38115829723783817       5.91523794321531932E-002 -0.32200591780573207     
  0.40000000000000002        5.2290214393534686      -0.12852454778994410       8.63414764539042671E-015 -5.03503724304243949E-008 -6.10622663543836097E-016 -0.37150563533625908       0.10451456650497572      -0.26699106883126034     
  0.40000000000000002        5.3107747140516572      -0.18106410230332654       8.74657021766057580E-015  3.37598923677573381E-008 -5.02375918642883335E-015 -0.35994053036007156       0.14818227292241176      -0.21175825743769511     
  0.40000000000000002        5.3940746890240732      -0.23357913173270356       8.85097331411138184E-015 -2.25818565478819178E-008  1.28785870856518159E-014 -0.34655134454957015       0.18921026751235490      -0.15734107703714340     
  0.40000000000000002        5.4792097725120739      -0.28589505590653358       8.83543267161065714E-015  1.50649488682430555E-008  7.32747196252603317E-015 -0.33145475474888841       0.22667629042511475      -0.10477846432376259     
  0.40000000000000002        5.5664813168879954      -0.33781967234984511       8.83330551859700454E-015 -1.00161149547972617E-008 -1.88529747369159395E-014 -0.31479737670441982       0.25971320055368036      -5.50841761507897057E-002
  0.40000000000000002        5.6562066025654882      -0.38914371763087940       8.75987954150322331E-015  6.62881697449657636E-009 -9.92088355911135977E-015 -0.29675659118790126       0.28754430641352291      -9.21228477442524903E-003
  0.40000000000000002        5.7487219844776263      -0.43964223804135188       8.53859260545773900E-015 -4.36742288167923931E-009  3.10168557504653108E-015 -0.27754029746868769       0.30952027373788876       3.19799762691522702E-002
  0.40000000000000002        5.8443862472385826      -0.48907688673511746       8.29121784162791570E-015  2.85557218843157656E-009 -2.16909823436139959E-014 -0.25738532870933917       0.32515536252810079       6.77700338188315654E-002
  0.40000000000000002        5.9435842164352906      -0.53719923932412361       7.95221583762057348E-015 -1.85444398725920223E-009  9.71445146547011973E-017 -0.23655430222960239       0.33416017035320622       9.76058681236540993E-002
  0.40000000000000002        6.0467306755103953      -0.58375517823207412       7.50878354182635880E-015  1.19037002477284659E-009 -1.43912659567035917E-014 -0.21533075142344335       0.33646765770305875       0.12113690627965061     
  0.40000000000000002        6.1542746403398887      -0.62849033656313613       6.70376087781771307E-015 -7.54848329675983365E-010 -8.35442826030430297E-015 -0.19401249839091697       0.33224912844217469       0.13823663005117787     
  0.40000000000000002        6.2667040468407453      -0.67115651550244693       5.82530100436958026E-015  4.70034514782335933E-010  3.49720252756924310E-015 -0.17290337486093599       0.32191714827840767       0.14901377341748828     
  0.40000000000000002        6.3845509107566860      -0.71151889861894058       5.05472122587392851E-015 -2.85792839047060987E-010 -1.74027459109993288E-014 -0.15230357465098765       0.30611318259818504       0.15380960794718004     
  0.40000000000000002        6.5083970231984347      -0.74936378824740724       4.23971708658892277E-015  1.67973940312649006E-010 -8.32667268468867405E-016 -0.13249910688335509       0.28567902685320667       0.15317991996988919     
  0.40000000000000002        6.6388802506615301      -0.78450649287983354       3.69708174896784906E-015 -9.35194022916308043E-011 -1.49324996812083555E-014 -0.11375099146647395       0.26161279513157920       0.14786180366509821     
  0.40000000000000002        6.7767015143243849      -0.81679891220038503       3.18656414450955127E-015  4.75991711323953126E-011 -1.42941214420488905E-014 -9.62849683880692975E-002  0.23501212535877083       0.13872715697066176     
  0.40000000000000002        6.9226325308296701      -0.84613631130787281       2.76045820816174684E-015 -1.98349340424508469E-011 -8.49320613838244753E-015 -8.02825516279107865E-002  0.20700906214864101       0.12672651052073994     
  0.40000000000000002        7.0775244061256846      -0.87246276030057224       2.64354532344824491E-015  3.84014001153509810E-012  8.93729534823251015E-015 -6.58742245063074910E-002  0.17870245715830857       0.11282823265201743     
  0.40000000000000002        7.2423171863379592      -0.89577474924680245       2.64112800523400962E-015  4.91014867654016030E-012 -4.08006961549745029E-015 -5.31354358565553422E-002  0.15109437801255579       9.79589421560569662E-002
  0.40000000000000002        7.4180504866701424      -0.91612257582389434       2.84144374576499589E-015 -9.12219605408992606E-012 -1.23789867245704954E-014 -4.20858222948220992E-002  0.12503674646082372       8.29509241660149887E-002
  0.40000000000000002        7.6058753434102888      -0.93360924089792874       2.76198715561001811E-015  1.06868455057584910E-011 -9.00668428727158243E-015 -3.26917761895170189E-002  0.10119321431997191       6.85014381304591552E-002
  0.40000000000000002        7.8070674687427708      -0.94838676596140159       2.45733953945025930E-015 -1.07117873598960855E-011 -1.90819582357448780E-015 -2.48721423017182301E-002  8.00193095678403965E-002  5.51471672660973564E-002
  0.40000000000000002        8.0230421381679129      -0.96065004910860186       2.03485654868902552E-015  9.94345925042772194E-012 -5.57193180483750439E-015 -1.85065075344724925E-002  6.17614903500309578E-002  4.32549828155263175E-002
  0.40000000000000002        8.2553710126694710      -0.97062858223323067       1.78983970587370089E-015 -8.80021402971387090E-012  5.50254286579843210E-015 -1.34452955829460121E-002  4.64733665708810181E-002  3.30280709878987416E-002
  0.40000000000000002        8.5058013013582467      -0.97857653916220733       1.74360612704276700E-015  7.55584483869142787E-012 -1.05471187339389871E-015 -9.52072823313321673E-003  3.40454056971340041E-002  2.45246774639783990E-002
  0.40000000000000002        8.7762778168699320      -0.98476189193121200       1.67880335240227845E-015 -6.33699689944755562E-012 -3.15719672627778891E-016 -6.55768593186867310E-003  2.42432340646008514E-002  1.76855481327452511E-002
  0.40000000000000002        9.0689686801654954      -0.98945530391785508       1.72720506769084164E-015  5.23572504795843940E-012 -3.26648430526432776E-015 -4.38358920379059575E-003  1.67493013734063001E-002  1.23657121696126669E-002
  0.40000000000000002        9.3862957120778603      -0.99291957314077839       1.56429347019140289E-015 -4.26108454076867815E-012  3.53363172056475605E-015 -2.83660770776593971E-003  1.12031305422188015E-002  8.36652283444969808E-003
  0.40000000000000002        9.7309709288111250      -0.99540035180292719       1.27318597390937951E-015  3.44328211776545601E-012 -2.57432963834958173E-015 -1.77175060140011449E-003  7.23641816635194491E-003  5.46466756496084491E-003
  0.40000000000000002        10.106041066017863      -0.99711875025641372       1.28368020827518911E-015 -2.74801709165828356E-012  1.04213512819306686E-015 -1.06466094403196007E-003  4.50060039509606047E-003  3.43593945106586895E-003
  0.40000000000000002        10.514942727325318      -0.99826625254127177       1.08760295976541981E-015  2.19072156248945049E-012 -3.83850937146767990E-015 -6.13191180231312640E-004  2.68587805349502096E-003  2.07268687325947104E-003
  0.40000000000000002        10.961571636858107      -0.99900214127007547       7.36256952344845667E-016 -1.72318929958503730E-012  2.12612046024407420E-015 -3.37047005051060902E-004  1.53188959723549547E-003  1.19484259218263886E-003
  0.40000000000000002        11.450370640438438      -0.99945337498145825       4.86747700233871217E-016  1.36310407405915157E-012 -5.29524341041920366E-016 -1.75933827997894557E-004  8.31107136408380017E-004  6.55173308412696203E-004
  0.40000000000000002        11.986442650054103      -0.99971661244079857       3.97886755119258005E-016 -1.05871908462340514E-012 -1.43114686768086585E-017 -8.67145271541135978E-005  4.26570818828875286E-004  3.39856291677490246E-004
  0.40000000000000002        12.575696821236209      -0.99986187233117563       3.73936699253753283E-016  8.35460173265190065E-013  8.36190925529445295E-016 -4.00895656002678221E-005  2.05793164767068194E-004  1.65703599167123640E-004
  0.40000000000000002        13.225039146910204      -0.99993718848739876       1.93864561547610867E-016 -6.39993266715599418E-013 -1.01241443613980797E-015 -1.72497446684123357E-005  9.26133022908071346E-005  7.53635576254024130E-005
  0.40000000000000002        13.942622748717197      -0.99997359428798294       7.75675050141140361E-018  5.07175031139173171E-013 -2.28875078611689986E-016 -6.84447803845203398E-006  3.85295195976694050E-005  3.16850415586846000E-005
  0.40000000000000002        14.738179095841197      -0.99998984852614747      -2.12709337051104081E-016 -3.81369415214383167E-013  2.19349346086868124E-016 -2.47694750930187177E-006  1.46584481968616037E-005  1.21815006877619881E-005
  0.40000000000000002        15.623460226824552      -0.99999647773165512      -2.13045953103114898E-016  3.06412881179163321E-013  4.06313234468415330E-016 -8.06726134947275144E-007  5.03341589079711369E-006  4.22668975730544910E-006
  0.40000000000000002        16.612835496458231      -0.99999891458592216      -5.45733570734839346E-017 -2.24087241817993998E-013  1.30823815186953060E-016 -2.32643905419210160E-007  1.53513773523902688E-006  1.30249383025985709E-006
  0.40000000000000002        17.724107251209457      -0.99999970879504663       8.94751159670014807E-017  1.85140097697100714E-013 -4.30868719609317496E-016 -5.82166147727668261E-008  4.07662339950205848E-007  3.49445723554595185E-007
  0.40000000000000002        18.979642978997930      -0.99999993366103446      -5.63322038686237560E-017 -1.29504913737310545E-013  2.76395122495203731E-016 -1.23248502684014704E-008  9.19315970836019529E-008  7.96067471854551918E-008
  0.40000000000000002        20.407975344293177      -0.99999998757051656       2.72101146582550436E-017  1.12596564016964606E-013 -6.85297597717032548E-017 -2.13728412032068845E-009  1.70526639947216507E-008  1.49153797553889785E-008
  0.40000000000000002        22.046111437160508      -0.99999999816217433       6.34281860371811996E-017 -7.31047167246146046E-014 -1.44709091047262653E-016 -2.91136705788283420E-010  2.49652751518642630E-009  2.20539079655629555E-009
  0.40000000000000002        23.942947333060463      -0.99999999979696730      -5.70247387301194454E-017  6.95476662371241616E-014  1.10701333430583081E-016 -2.94807041491451918E-011  2.73119817838842696E-010  2.43639242032123779E-010
  0.40000000000000002        26.164460011567193      -0.99999999998441158      -5.71516205097950673E-017 -3.96184821060963088E-014  6.65044752632166335E-017 -2.05792277038201843E-012  2.07641174903332248E-011  1.87061033325022805E-011
  0.40000000000000002        28.801861166107230      -0.99999999999926237      -3.97071402087754583E-017  4.42900924269018503E-014  5.19549670172256842E-017 -9.11322263294210207E-014  9.76428909326246212E-013  8.85158613072056527E-013
  0.40000000000000002        31.984895378824369      -0.99999999999997047      -5.40624896483261872E-019 -1.96995197931926214E-014  2.36356073427533261E-018 -8.79479180668777830E-016  3.64067985500819754E-014  3.54383189460332537E-014
  0.40000000000000002        35.904519621425116       -1.0000000000000075       4.90006318865979731E-017  2.94404257916713874E-014 -6.30897244170444679E-017 -8.64130403557747624E-016 -8.15296818930725939E-015 -9.05941988094139033E-015
  0.40000000000000002        40.853720781011674      -0.99999999999999434       2.12744157862217913E-017 -8.01008565032290676E-015 -2.71267383556516920E-017  6.99745722907907709E-016  6.13010533597134631E-015  6.79456491070589366E-015
  0.40000000000000002        47.306005596521956       -1.0000000000000044      -2.56911679895213860E-017  2.04098890566051239E-014  3.29055359348956165E-017 -6.14786548374962911E-016 -4.76355073613619689E-015 -5.32907051820079084E-015
  0.40000000000000002        56.079511137954633      -0.99999999999999667      -9.83871855271428733E-018 -1.53219451015651487E-015  1.09504419420815067E-017  3.79536574378049910E-016  3.62500898747122067E-015  3.99680288865054146E-015
  0.40000000000000002        68.719925052796626       -1.0000000000000020      -1.17499861577593333E-017  1.41091565514228634E-014  1.49186218933924946E-017 -1.38307540908851527E-016 -2.27327077574848249E-015 -2.39808173319034617E-015
  0.40000000000000002        88.539837143240860      -0.99999999999999911       5.39926858553829512E-017  1.28304485091934595E-015 -6.53611279682902520E-017  1.61763266683956839E-017  1.11587618365946440E-015  1.06581410364014866E-015
  0.40000000000000002        124.15253248305707       -1.0000000000000002      -7.32279776274800608E-017  8.64781336817888047E-015  8.80263743840980163E-017  3.68288398044787336E-017 -3.91369706012398143E-016 -2.66453525910037658E-016
  0.40000000000000002        207.14095670260372       -1.0000000000000000       3.04070989370707609E-017  1.44296467136095785E-015 -3.64969556312932930E-017 -3.09202820134390711E-017  6.73395566340619920E-017  -0.0000000000000000     
  0.40000000000000002        621.75427195055863       -1.0000000000000000        0.0000000000000000       2.92642429386424929E-015 -4.48345126893541848E-019  2.10906665841416667E-018 -1.66107607826831395E-018  -0.0000000000000000     

